<?xml version="1.0" encoding="UTF-8"?>
<svg viewBox="0 0 1440 210" version="1.1" xmlns="http://www.w3.org/2000/svg" xmlns:xlink="http://www.w3.org/1999/xlink" width="1440" height="210">
    <!-- Generator: Sketch 48 (47235) - http://www.bohemiancoding.com/sketch -->
    <title>Bottom Mountain</title>
    <desc>Created with Sketch.</desc>
    <defs></defs>
    <g id="Black-Bear-Desktop" stroke="none" stroke-width="1" fill="none" fill-rule="evenodd" transform="translate(0.000000, -425.000000)" opacity="0.5">
        <g id="Billboard" transform="translate(0.000000, -13.000000)" fill="#11384E" stroke="#0E3044" stroke-width="4">
            <path d="M0,512.029778 C0,512.029778 59.2452,501.233514 85.9122,486.625745 C96.1866,480.998509 104.4819,478.198844 110.7972,476.883632 C126.2223,473.671669 140.7744,467.189229 153.3933,457.754089 C169.0884,445.981093 176.0724,447.251295 198.2952,451.0619 C220.518,454.872505 229.4064,455.731309 249.0894,454.34948 C268.7724,452.966752 282.1059,444.076241 295.4394,451.69655 C308.7729,459.31776 330.3603,487.261296 371.6307,487.261296 C412.902,487.261296 427.5045,492.342102 427.5045,492.342102 C427.5045,492.342102 440.2035,501.868165 466.236,499.328662 C492.2676,496.787358 577.9836,473.924629 577.9836,473.924629 L635.1273,475.829481 C635.1273,475.829481 680.2074,495.517156 696.7152,494.882506 C713.2239,494.246955 717.0336,487.261296 737.3511,491.071901 C757.6686,494.882506 778.6215,498.693111 795.7647,491.707452 C812.9079,484.720893 839.5749,477.099683 839.5749,477.099683 L854.8983,470.418296 C861.0435,467.74016 867.8187,466.85435 874.4463,467.862589 C891.2142,470.411995 923.7231,475.194831 931.6395,475.194831 C942.4332,475.194831 1007.76356,448.356757 1011.0051,448.356757 C1014.24664,448.356757 1062.57693,445.346442 1078.66507,440.699596 L1147.5162,454.34948 L1237.6764,445.346442 L1336.725,454.34948 L1409.1066,443.44069 L1440,444.076241 L1440,645.171657 L0,645.171657 L0,512.029778 Z" id="Bottom-Mountain"></path>
        </g>
    </g>
</svg>